{
  "xmmenu_persist": {
    "loggedin_user": "shashwat",
    "project": {
      "projectId": "21ada323",
      "projectName": "JLR",
      "projectIcon": "admin.png",
      "userApplications": [
        {
          "userApplicationId": "23as423423",
          "userApplicationName": "Team Center",
          "userAppIcon": "userApp.png",
          "status": "activated",
          "position": "button",
          "baseApplication": {
            "baseApplicationId": "23as423423",
            "baseApplicationName": "base team cernter",
            "status": "activated",
            "program": "c:\teamcer.exe"
          }
        },
        {
          "userApplicationId": "23as423423",
          "userApplicationName": "Team Center",
          "userAppIcon": "userApp.png",
          "status": "activated",
          "position": "button",
          "userApplicationChildren": [
            {
              "userApplicationId": "23as423423",
              "userApplicationName": "Team Center",
              "userAppIcon": "userApp.png",
              "status": "activated",
              "position": "23as423423",
              "baseApplication": {
                "baseApplicationId": "23as423423",
                "baseApplicationName": "base team cernter",
                "status": "activated",
                "program": "c:\teamcer.exe"
              }
            }
          ]
        }
      ],
      "projectApplications": [
        {
          "projectApplicationId": "23as423423",
          "projectApplicationName": "Team Center",
          "projectAppIcon": "projectApp.png",
          "status": "activated",
          "position": "button",
          "baseApplication": {
            "baseApplicationId": "23as423423",
            "baseApplicationName": "base team cernter",
            "status": "activated",
            "program": "c:\teamcer.exe"
          }
        },
        {
          "projectApplicationId": "23as42sdf3423",
          "projectApplicationName": "Team Center",
          "projectAppIcon": "projectApp.png",
          "status": "activated",
          "position": "button",
          "projectApplicationChildren": [
            {
              "projectApplicationId": "23as42sdf3423",
              "projectApplicationName": "Team Center",
              "projectAppIcon": "projectApp.png",
              "status": "activated",
              "position": "23as42sdf3423",
              "baseApplication": {
                "baseApplicationId": "23as423423",
                "baseApplicationName": "base team cernter",
                "status": "activated",
                "program": "c:\teamcer.exe"
              }
            }
          ]
        }
      ]
    }
  }
}