{
  "status":"ACTIVE",
  "iconId": "6aa8a6e5-dc29-4e27-b5e9-7768dcdd6fc8",
  
  "siteTranslations": [
    {
      
      "name": "site1",
      "description": "description2",
      "remarks": "remarks2",
      "languageCode": "en"
     
    },
    {
    
      "name": "site1",
      "description": "description2",
      "remarks": "remarks2",
      "languageCode": "de"
      
    }
  ]
  
}