[
    {
        "xMObject": "SITERESPONSEOBJECT",
        "id": null,
        "siteResponseList": [
            {
                "siteObject": {
                    "site": {
                        "xMObject": "SITE",
                        "id": "5ded81ba-b52b-4060-8158-06cae33d44da",
                        "status": "0",
                        "icon": {
                            "xMObject": "ICON",
                            "id": "1e7b8746-7939-4d58-9e39-b5531dd83984",
                            "iconName": "iconName2"
                        }
                    },
                    "siteDetailsList": [
                        {
                            "xMObject": "SITEDETAIL",
                            "id": "c8fe0aba-0ff2-4588-8e0f-7b4756fd6af1",
                            "siteName": "siteName2",
                            "siteDescription": "siteDescription2",
                            "siteRemarks": "siteRemarks2",
                            "languageCode": "en"
                        },
                        {
                            "xMObject": "SITEDETAIL",
                            "id": "51550933-c975-43e2-8982-64201a377dbf",
                            "siteName": "siteName in de",
                            "siteDescription": "siteDescription2 in de",
                            "siteRemarks": "siteRemarks2 in de",
                            "languageCode": "de"
                        }
                    ]
                },
                "creationInfo": {
                    "creationDate": "2017-03-02",
                    "updationDate": "2017-03-02"
                }
            },
            {
                "siteObject": {
                    "site": {
                        "xMObject": "SITE",
                        "id": "fb755706-00e1-44f1-b95a-6023fb82e09e",
                        "status": "0",
                        "icon": {
                            "xMObject": "ICON",
                            "id": "1e7b8746-7939-4d58-9e39-b5531dd83984",
                            "iconName": "iconName2"
                        }
                    },
                    "siteDetailsList": [
                        {
                            "xMObject": "SITEDETAIL",
                            "id": "b9c53311-af4a-44f0-abe0-cdd4b3bae449",
                            "siteName": "siteName3",
                            "siteDescription": "siteDescription3",
                            "siteRemarks": "siteRemarks3",
                            "languageCode": "en"
                        }
                    ]
                },
                "creationInfo": {
                    "creationDate": "2017-03-02",
                    "updationDate": "2017-03-02"
                }
            }
        ]
    }
]
