{
    "id": "71161bf0-b76a-4b21-87fc-1ac471f3b1e1",
    "status": "NOTACTIVE",
    "iconId": "04683d95-d490-4868-bca8-e56157fcced4",
    "siteTranslations": [
        {
            "id":"d984f641-edfc-4eb9-abf6-e1e40a80fa90",
            "name": "Site 3 en",
            "description": "3 en",
            "remarks": "3 en",
            "languageCode": "en"
        },
        {
            "id":"a9dd3242-31c7-4f01-9e62-81d31f8311de",
            "name": "Site 3 de",
            "description": "3 de",
            "remarks": "3 de",
            "languageCode": "de"
        }
    ]
}
