{
    "siteObjectList": [
        {
            "site": {
                "xMObject": "SITE",
                "id": "0dd52116-f6d4-411e-a113-f3761fe115c6",
                "status": "INACTIVE",
                "icon": {
                    "xMObject": "ICON",
                    "id": "444760fb-37eb-430c-98dc-ef4b2f62af6d",
                    "iconName": "Icon_Name1"
                }
            },
            "siteDetailsList": [
                {
                    "xMObject": "SITEDETAIL",
                    "id": "dbeb845a-5d99-4509-b8f7-a2c0f31710d6",
                    "siteName": "siteName_8",
                    "siteDescription": "siteDescription_8",
                    "siteRemarks": "siteRemarks_8",
                    "languageCode": "en"
                }
            ]
        }
    ]
}

